100, 0x4ab561d9e3c405a10b46b4d591c4818c2b6b09467cc56533145f91ad1e0300000325001c86bc0024d0ce308f7ad67584, -805.0
101, 0x7dade11587f4d0c909550f8646865a9c51de66b824f443e3fcbafa2e8753000002da001c892d0024d0ce79f6015c9384, -730.0
102, 0x1166011ab70df579e4136cfa219472062895fdbe0731f3d79db7d5706156000002da001c8aa40024d051a5c31bfded84, 730.0
103, 0x3e54392b8b03b727f20a00c60602900f1d4d228503b71c4c386eb660989d300000293001c7eec0024d05149b3fef11f84, -659.0
104, 0x2f23230422358d5c07ea5dbb3f1d7f2f5ccce98e97c81847af861f60f12f200000293001c7eec0024d0ce4a97e0e8ac84, 659.0
105, 0x36f9d6510d5ba32a95302c0c1ffc8e39f82e291e31d457be5b107b6b3f9d2000002c4001c7f690024d0518dc1a4896284, 708.0
106, 0x1df17280915b1f23a081ee835969f469215d82494fa79125c75bf2f5e05b000002c4001c80e00024d051303b9c2fe884, -708.0
107, 0x2a74aa381417c335e31c381630389973026bb5cde00b73ab00ceecf693c3b00000311001c7f690024d051310047ad4c84, -785.0
108, 0x736470fdf359ec10ea421271a838f5bb06ee84f609034b1df2c3261fd86600000310001c8aa40024d0512202818f5d84, 784.0
109, 0x2b46ca30323c8605984a387628d04922acdd95168bedec36c020f5c286e020000035d001c7fe60024d051a77a452a0a84, 861.0
110, 0x91dc654dda158b20d0eabd5555b761c820b9fbb7fbb6a53284a34d8e34a20000035d001c7d750024d05180ee7422d608, 861.0
111, 0x1a79863ac470c1fa039f437f745d4d6a6a3aa396f6505de1f18ff93d8a04b000003a9001c7fe60024d05143e215f69084, -937.0
112, 0x3ed5a604c57ff2179d136801de8bbfe9c118d09eaab35470274259618457000003a9001c85c20024d0512eb10d602384, -937.0
113, 0xdfc7df9c950da0b6ff4fdfd72a404aca3737365dfcce1d7c006b155f2776000003f5001c82570024d05181884a905008, 1013.0
114, 0x33e74a0fa39f768970b5e2f9268601845a0f20425c7f0154112f07ec9ddb6000003f5001c82570024d0ce8f8651999008, 1013.0
115, 0x255082b7c55c63f7094c446b9afa82497cf74934821ecf3caca422fc34a8e00000441001c7fe60024d05156dd35656008, 1089.0
116, 0x36170c5690165f32025f1ff3e810793eefa0a81b33446eb6299678969901a00000441001c7cf80024d0510400eabcc408, 1089.0
117, 0x220aaadb380d4637a82d029fd0bf662d5d0615f8481b64186330c97fb945e0000048c001c7eec0024d051e34ba0238008, 1164.0
118, 0x39272375d059d19fa9b109c6554ebf3b02203ed3262c08e09d5d756d088560000048c001c7c7b0024d051b7c8c527c208, 1164.0
119, 0x79c864ad480afc543d5c42b29965ba51434ba3dd1072baf7627b15662656000004d7001c82d40024d0cef2900b36f708, 1239.0
120, 0x37f33c95c78f7919e3379572fbd8dc6c3d31ff63799317c7d67377e262596000004d7001c85450024d0ce9dfe89e85484, 1239.0
121, 0x66c6e30556f9ea531886fb8c3ec61067ed257de15e4289dc438fd693ebf300000523001c84c80024d0ce87279943ff84, -1315.0
122, 0xf1338d1de5dc745d3233be673c17230de677fbc16f26f3ffd8b82e7d583a00000523001c87b60024d0ce47fbd508a584, 1315.0
123, 0x38d12e8d270043b140a709e08209497abb7aad19a21729f3bb9ab80dbfa1f0000055b001c88330024d051df8fbedc0284, -1371.0
124, 0x3b7372e14707bf5ffdce73dd04fe9357c3483019baec37bdc673a874c65320000055b001c8f090024d0ce89b4dfdc6c84, 1371.0
125, 0x235f22d6df745805b83540952b9a037c260e8605f0edce5fdc5f557a7e2200000538001c84c80024d0ce8757b8f19484, 1336.0
126, 0xaf131e9c134e2e853466cbb37870d6bd02fcc085c6451e9f02be731991c600000538001c844b0024d0ce31875c73bd84, 1336.0
127, 0x3dd67a08ff7216690217a14079ba9bfdb00f97e6540913b4a0318c6539f36000004eb001c85c20024d05101cf9fff1984, 1259.0
128, 0x380851cb411e04c3c7321277205088572441dc112282d04e990d1c8c82b12000004ec001c90800024d051e30d0970cd84, 1260.0
129, 0x18bd25eea4447a3af2ea1ae41050213c95af8d6245cd9c23ce8b4c300c0160000049f001c85c20024d05124d3ff379184, 1183.0
130, 0x2881260761441cb51d8256be479b177efc25affec1700addef402704557c70000049f001c815d0024d0ce07e0f8c6aa08, -1183.0
131, 0x3fc9448b61ab9ef9ff07b65d3c465101962dbbde67f96af0ad3d777c143fb00000453001c844b0024d0ceb44fc69c7d08, -1107.0
132, 0x304aad829859bef07ac27f8050e304a00357bc85df5847d907b1c10a58fa700000453001c83ce0024d0518eeff8c48884, -1107.0
133, 0x20d0d195536476204a4a0e0a8b8d7522754cb24e413b0fbe0f26ab810e48700000408001c8aa40024d051a34044c54b08, -1032.0
134, 0x1a597f65f275564cb0fb590c1a1024f7f139a4501228f838255b773207ef7000005a400137b4e00215b8da7722adb1e08, -1444.0
135, 0x2bc54b67e9118567fdd106139154450b30c441913286287b5412c4205029b000003ef001be7110024a2e87934488f9568, -1007.0
136, 0x29502c1bb618d25f7a5558eebc4502358958c2a7321de8390a811e8a71c9f000003eb001c8aa40024d051b27544571b84, -1003.0
137, 0x33f7c3d78431bebe1a7b467bf5895876dfb4593a881bf477bf79f0ddff0fe00000370001c94e50024d0ceab3aa7fc2084, 880.0
138, 0xa2509cbf30ab5242f0e6f8b1faa7b1e251f6c50b85fdfe1c26ea0a3e5a6b00000370001c86bc0024d05152e6d196cd08, -880.0
139, 0x206268adc437ca5733feaa7285ecefdfe309b090d839c8afaf9cce66ff25700000324001c90fd0024d0ceec90a08bf584, -804.0
140, 0x3c83463b1e6ef86dfde83a3eddc8ec2067256b7a705662fe2ed4827cb07ab00000324001c8e0f0024d051422633244c84, -804.0
141, 0xa266ab43936a2bb144c0a11f969b0548145336e217d09206629d82884567000002d9001c95620024d05144f13ed82208, -729.0
142, 0x11e3256a8632f35dec752455057e2f39655d58a48ba382f00efb759f30deb000002da001c917a0024d0511d7fc2c01b08, -730.0
143, 0x30237080033d051b567d1993f783c048b75e1ab72c8f026a5a5213c102e6600000293001c90fd0024d0cecc11947c7684, 659.0
144, 0x145621c8bc707966d0642411a9d7fd78936033f37a143716c3187c28c943a00000292001c8c980024d0ce0c7000037984, 658.0
145, 0x9500f68148b113a94593dbd3bcd740f784dfd9ed262981613dffda6e9683000002c2001c87390024d0517bc6463c9b08, -706.0
146, 0x1a385b0dfa7c7af162bf7839638fd915b84adc5a6f3b701dcafdb09e6622e000002c2001c8c980024d0519c4498089484, 706.0
147, 0x3c98387dea141c4febc341fa97effae30ef319f7bad9373f94cdf23ed09b30000030f001c8b210024d051cc7c08327784, -783.0
148, 0x22af72bec527bb464488252c89c448549915188a780f186406eb9563175c20000030f001c83510024d0ceed5d751ae084, 783.0
149, 0x2aeb135bfd6cdfcea62dab0af14082ecc6ffac420bf189446e2b17d60352a0000035b001c892d0024d0cecaa5cbed1d08, 859.0
150, 0x28a5d534573668cfedb86ffd480a970f1619f75454ffdad5501927f0a2ec60000035c001c844b0024d0ce0717404a6508, 860.0
151, 0x1f7cc22e9555983ad03e2b7a4563bec9fe8ed0cbb4e9b6434a942fdbff532000003a8001c88b00024d0512574657acb08, 936.0
152, 0x255e858f411ddd7f2f7d23f244d3af78965b97b55ece125488ead66f8c776000003a8001c8b9e0024d0ce778eef725c08, 936.0
153, 0x221a2de4a91a0806172aca67b0dfa3ff25f51357e6dd867f5dbfad1d1b4b6000003f3001c93eb0024d0ced5eb65067d08, 1011.0
154, 0x3a39d59a4d28a9fb39b51c76d215f74c8cb2f55d699c26ede2a4de7ab9586000003f4001c90800024d0514d1660af2008, 1012.0
155, 0x1b3fee8c081a58e61fe12a4cd6f6b095dd93c6edff80a02088760313413a70000043f001c90fd0024d0ceebcfd86ef384, -1087.0
156, 0x36afbe0e6347146e183f4286fd28a64e765c7c67590e006f9409d7506d7e300000440001c85450024d0ce881e21fbce84, -1088.0
157, 0x15f4f4631f2ef3009b17f74e17bff828b57497071e9e3410ff47da05026530000048b001c8b210024d0ced088d6c32d84, -1163.0
158, 0x277f22af4139af15c99c53c0c26029383a4e5db02f8823ff9158614602d570000048b001c8aa40024d0cee90982920884, -1163.0
159, 0x3dc01fe4d0e19b105fc1ae2224438cdb2083c19ccf705298d919abe95d072000004d6001c85c20024d0ce5ee48e18ce84, 1238.0
160, 0xeb64305277e6c193d78266023f4f415407fd497454635647fa1c35dd849e000004d6001c8e8c0024d051cc9c79ad8908, 1238.0
161, 0x300c28a4be6038d7e8770dc50290527b0a4714f356a87f43cfb21743fa7eb00000522001c892d0024d0cec0f4277dfc84, -1314.0
162, 0x2cd9713dfd058c687453068c604ea61dcd7034572e994c17f4184b52085ce00000522001c8e8c0024d0ce567115fb2208, 1314.0
163, 0x91dfacb3e1fa727420909ef9ad09038bd229ba2000c69728174c7b942a220000055b001c94680024d0519d37cb1f6708, 1371.0
164, 0x322f42c2205c0ce547235ece25588e14f6eabcc4341032c5612b85754f7320000055b001c8b210024d051d310e53fcf08, 1371.0
165, 0x1fa988bd3806009fce1705c427392ece6305820c313527357b2d33279ef2600000539001c8d920024d0ce334ee15fd684, 1337.0
166, 0x29802be203910c155139ecc17349be8a0f28064e00115d017373472719f0b00000539001c8d920024d0ce9c8dd01fde84, -1337.0
167, 0x171541a06d1e6cc4bef200085711dc3ae0c3e20bbe0b79621ff05f6431e62000004ed001c93eb0024d0ce7f806a8e1484, 1261.0
168, 0x12a4f69cf40dd84fd674207ab69a545ab68e6501127b425a241de076794e6000004ed001c97560024d0ceba14ba406e08, 1261.0
169, 0xb7bfcf3b612ddeaff385790c18fff08176c25623dbc08a44ebd927648a730000049f001c8b9e0024d0ce51bb96436b08, -1183.0
170, 0x12f4615b25ba4f3a6cd5fb700f88f7f06a899b84ce143675908285bd0aa7000004a0001c97d30024d0ce428a3f717984, -1184.0
171, 0x25a189bcdc5e75caa6450f0881ef1e61a8012c29d3996e80fd10e3228010300000454001c965c0024d0cef75f7262f184, -1108.0
172, 0x12628084236c1d43cd779cdba4d4be7efafdffd34acfbe448a6422e4bcfef00000454001c8c980024d0cecdb3a8bb8208, -1108.0
173, 0x2403cf60f8afccdcd7cc3c0706c7c5174df2ce2a1cb43e26d31faec1f27f700000408001c8f860024d0cee5eb9368a884, -1032.0
174, 0x204536e5af155e722343456f0ad11118de37ca090e5129800803080bb449300000407001c92f10024d0cea19c80832c08, -1031.0
175, 0x32eb6780f50e761c7e16f49087f02a7ee35ef337a3c748de765d40961c2e000003bc001c97d30024d0ce423161fd4084, 956.0
176, 0x28a140c28bbb96ca99248e8800ab7d2a7c040f4f34b6001247c0154377a43000003bc001c87390024d0ce85c046c65f08, -956.0
